Tidyverse homework exercise - solution – Data Science for Biology
…
Something weird is going on with Iran. It has a very high number of deaths per 100 cases at the start…

tm |> filter(Country == "Iran", Confirmed > 0)

# A tibble: 160 × 10
   Country Date       WHO_Region     Confirmed Deaths Recovered Active New_Cases
   <chr>   <date>     <chr>              <dbl>  <dbl>     <dbl>  <dbl>     <dbl>
 1 Iran    2020-02-19 Eastern Medit…         2      2         0      0         2
 2 Iran    2020-02-20 Eastern Medit…         5      2         0      3         3
 3 Iran    2020-02-21 Eastern Medit…        18      4         0     14        13
 4 Iran    2020-02-22 Eastern Medit…        28      5         0     23        10
 5 Iran    2020-02-23 Eastern Medit…        43      8         0     35        15
 6 Iran    2020-02-24 Eastern Medit…        61     12         0     49        18
 7 Iran    2020-02-25 Eastern Medit…        95     16         0     79        34
 8 Iran    2020-02-26 Eastern Medit…       139     19        49     71        44
 9 Iran    2020-02-27 Eastern Medit…       245     26        49    170       106
10 Iran    2020-02-28 Eastern Medit…       388     34        73    281       143
# ℹ 150 more rows
# ℹ 2 more variables: Day_of_Week <ord>, Deaths_per_100_cases <dbl>
…
