Data Science for Biology - Data manipulation and tidying
…
R version 4.1 introduced a native pipe which can be used in base R without loading the magrittr or tidyverse packages. It uses the alternative |> symbol. There are some subtle differences with this pipe which you can read about here. You can change the CTRL+ALT+M keyboard shortcut to use the native pipe in the Code section of RStudio’s Global Options.

 Challenge:

Using pipes, subset the surveys data to include animals collected before 1995 and retain only the columns year, sex, and weight.

Solution. 

 Solution:

surveys |>
  filter(year < 1995) |>
  select(year, sex, weight)

# A tibble: 18,044 × 3
    year sex   weight
   <dbl> <chr>  <dbl>
 1  1978 M        204
 2  1978 M        199
 3  1978 M        197
 4  1979 M        166
 5  1979 M        184
 6  1979 M        206
 7  1979 F        274
 8  1979 F        186
 9  1980 F        184
10  1980 F         87
# ℹ 18,034 more rows
…
