Homework exercise – Data Science for Biology
…
Solution. 

## Separate sample column and set categorical variables as factors
qpcr_tidy <- qpcr |>
  separate(Sample, into = c("Diff", "Day", "Biological_rep","Technical_rep"), sep = "_") |>
  mutate(Biological_rep = Biological_rep |> str_remove("Biological Replicate "),
         Technical_rep = Technical_rep |> str_remove("Technical Replicate "),
         Diff = factor(Diff, levels = c("DSi", "DS-Wi", "DS-WHi")),
         Day = factor(Day, levels = c("D7", "D12", "D15/16", "D18/19"), ordered = T)
         )

qpcr_tidy

# A tibble: 72 × 6
   Diff  Day    Biological_rep Technical_rep `APOE_C(t)` `GAPDH_C(t)`
   <fct> <ord>  <chr>          <chr>               <dbl>        <dbl>
 1 DSi   D7     1              1                    24.9         16.9
 2 DSi   D7     1              2                    25.3         17.2
 3 DSi   D12    1              1                    26.5         16.2
 4 DSi   D12    1              2                    26.4         16.5
 5 DSi   D15/16 1              1                    29.1         16.3
 6 DSi   D15/16 1              2                    29.4         16.1
 7 DSi   D18/19 1              1                    30.4         16.2
 8 DSi   D18/19 1              2                    31.6         16.3
 9 DSi   D7     2              1                    24.0         16.3
10 DSi   D7     2              2                    24.6         16.2
# ℹ 62 more rows
…
 Solution

Solution. 

qpcr_mean <- qpcr_tidy |>
  group_by(Diff, Day, Biological_rep) |>
  summarise(mean_APOE_Ct = mean(`APOE_C(t)`),
            mean_GAPDH_Ct = mean(`GAPDH_C(t)`)) |>
  ungroup() |>
  mutate(delta_Ct = mean_APOE_Ct - mean_GAPDH_Ct,
         fold_change = 2^(-delta_Ct))

qpcr_mean

# A tibble: 36 × 7
   Diff  Day    Biological_rep mean_APOE_Ct mean_GAPDH_Ct delta_Ct fold_change
   <fct> <ord>  <chr>                 <dbl>         <dbl>    <dbl>       <dbl>
 1 DSi   D7     1                      25.1          17.1     8.03   0.00384  
 2 DSi   D7     2                      24.3          16.3     7.98   0.00396  
 3 DSi   D7     3                      23.7          15.2     8.48   0.00281  
 4 DSi   D12    1                      26.5          16.3    10.1    0.000883 
 5 DSi   D12    2                      25.3          16.3     9.03   0.00191  
 6 DSi   D12    3                      24.6          14.8     9.81   0.00111  
 7 DSi   D15/16 1                      29.2          16.2    13.0    0.000119 
 8 DSi   D15/16 2                      27.3          16.4    10.9    0.000529 
 9 DSi   D15/16 3                      26.9          14.9    12.1    0.000230 
10 DSi   D18/19 1                      31.0          16.2    14.7    0.0000363
# ℹ 26 more rows
…
 Solution

Solution. 

qpcr_relative <- qpcr_mean %>%
  group_by(Diff) %>%
  mutate(
    mean_D7_fc = mean(fold_change[Day == "D7"]),
    relative_fc = fold_change / mean_D7_fc
  ) |>
  ungroup()

qpcr_relative

# A tibble: 36 × 9
   Diff  Day    Biological_rep mean_APOE_Ct mean_GAPDH_Ct delta_Ct fold_change
   <fct> <ord>  <chr>                 <dbl>         <dbl>    <dbl>       <dbl>
 1 DSi   D7     1                      25.1          17.1     8.03   0.00384  
 2 DSi   D7     2                      24.3          16.3     7.98   0.00396  
 3 DSi   D7     3                      23.7          15.2     8.48   0.00281  
 4 DSi   D12    1                      26.5          16.3    10.1    0.000883 
 5 DSi   D12    2                      25.3          16.3     9.03   0.00191  
 6 DSi   D12    3                      24.6          14.8     9.81   0.00111  
 7 DSi   D15/16 1                      29.2          16.2    13.0    0.000119 
 8 DSi   D15/16 2                      27.3          16.4    10.9    0.000529 
 9 DSi   D15/16 3                      26.9          14.9    12.1    0.000230 
10 DSi   D18/19 1                      31.0          16.2    14.7    0.0000363
# ℹ 26 more rows
# ℹ 2 more variables: mean_D7_fc <dbl>, relative_fc <dbl>
…
