RNA-Seq Differential Expression – Data Science for Biology
…
result_table

# A tibble: 58,396 × 8
   GeneID          baseMean log2FoldChange  lfcSE    pvalue      padj GeneSymbol
   <chr>              <dbl>          <dbl>  <dbl>     <dbl>     <dbl> <chr>     
 1 ENSG00000155363   94561.          7.47  0.134  0         0         MOV10     
 2 ENSG00000189060    7874.          1.52  0.0704 1.33e-104 1.19e-100 H1-0      
 3 ENSG00000173110     257.          6.52  0.357  1.53e- 74 9.12e- 71 HSPA6     
 4 ENSG00000270882    2234.          1.73  0.101  1.39e- 66 6.22e- 63 H4C14     
 5 ENSG00000187837    1605.          1.48  0.0936 1.52e- 57 5.30e- 54 H1-2      
 6 ENSG00000265972    5203.          1.38  0.0876 1.78e- 57 5.30e- 54 TXNIP     
 7 ENSG00000155090    1699.          1.20  0.0810 8.51e- 51 2.17e- 47 KLF10     
 8 ENSG00000102317    8191.         -0.751 0.0542 1.30e- 44 2.84e- 41 RBM3      
 9 ENSG00000112972   12428.          0.924 0.0669 1.43e- 44 2.84e- 41 HMGCS1    
10 ENSG00000142002    2395.         -0.765 0.0599 1.86e- 38 3.32e- 35 DPP9      
# ℹ 58,386 more rows
# ℹ 1 more variable: Significant <fct>
…
